ID,FIRST_NAME,LAST_NAME,EMAIL,PHONE_NUMBER
1,"John","Doe","jdoe@gmail.com","214-555-1234"
2,"Steve","Daskam","steve.daskam@slalom.com","123-456-7890"
3,"Wyatt","Chastain","wyatt.chastain@slalom.com","098-765-4321"