ID,CUSTOMER_ID,ADDRESS_TYPE,ADDRESS_LINE1,ADDRESS_LINE2,CITY,STATE,POSTAL_CODE
1,1,1,"123 Main St","Apt 200","Dallas","TX","75201"
2,1,1,"333 Third Street","","Dallas","TX","75206"
3,3,1,"123 Second St.","","Dallas","TX","75206"